Introduction to hgnc
…
Or create it from scratch:

read probe annotation from a GSE SOFT file

soft.table <- system.file('extdata/GSE19161_family.soft.gz', package = 'rGEO') %>% 
    rGEO::parse_gse_soft(verbose = F) %>% {.$table} %T>% print

# A tibble: 658 x 11
   ID          `Species Scientific Nam… `Sequence Type`   `Sequence Sourc…
   <chr>       <chr>                    <chr>             <chr>           
 1 121_at      Homo sapiens             Exemplar sequence GenBank         
 2 200003_s_at Homo sapiens             Exemplar sequence GenBank         
 3 200004_at   Homo sapiens             Exemplar sequence GenBank         
 4 200006_at   Homo sapiens             Exemplar sequence GenBank         
 5 200009_at   Homo sapiens             Exemplar sequence GenBank         
 6 200010_at   Homo sapiens             Exemplar sequence GenBank         
 7 200012_x_at Homo sapiens             Exemplar sequence GenBank         
 8 200016_x_at Homo sapiens             Exemplar sequence GenBank         
 9 200017_at   Homo sapiens             Exemplar sequence GenBank         
10 200018_at   Homo sapiens             Exemplar sequence GenBank         
# ... with 648 more rows, and 7 more variables: `Transcript ID(Array
#   Design)` <chr>, `UniGene ID` <chr>, `Gene Title` <chr>, `Gene
#   Symbol` <chr>, Ensembl <chr>, ORF <chr>, SPOT_ID <chr>
…
