Introduction to hgnc • hgnc
…
Or create it from scratch:

read probe annotation from a GSE SOFT file

soft.table <- system.file('extdata/GSE19161_family.soft.gz', package = 'rGEO') %>% 
    rGEO::parse_gse_soft(verbose = F) %>% {.$table} %T>% print

# A tibble: 658 x 11
   ID    `Species Scient… `Sequence Type` `Sequence Sourc… `Transcript ID(…
   <chr> <chr>            <chr>           <chr>            <chr>           
 1 121_… Homo sapiens     Exemplar seque… GenBank          X69699          
 2 2000… Homo sapiens     Exemplar seque… GenBank          g4506626        
 3 2000… Homo sapiens     Exemplar seque… GenBank          g4503538        
 4 2000… Homo sapiens     Exemplar seque… GenBank          g6005748        
 5 2000… Homo sapiens     Exemplar seque… GenBank          g6598322        
 6 2000… Homo sapiens     Exemplar seque… GenBank          g4506594        
 7 2000… Homo sapiens     Exemplar seque… GenBank          g4506610        
 8 2000… Homo sapiens     Exemplar seque… GenBank          g4504444        
 9 2000… Homo sapiens     Exemplar seque… GenBank          g4506712        
10 2000… Homo sapiens     Exemplar seque… GenBank          g4506684        
# … with 648 more rows, and 6 more variables: `UniGene ID` <chr>, `Gene
#   Title` <chr>, `Gene Symbol` <chr>, Ensembl <chr>, ORF <chr>,
#   SPOT_ID <chr>
…
